{
  "version": "3.0.0",
  "vulnerabilities": [
    {
      "id": "3164309afafe4c3ba4291476c47cd4f6a824b251618b693449de4ecb495dece5",
      "category": "sast",
      "name": "Path traversal: injection possible in 1st argument passed to 'System.IO.File.ReadAllBytes'",
      "message": "Path traversal: injection possible in 1st argument passed to 'System.IO.File.ReadAllBytes'",
      "cve": "Project2/WebApp/Controllers/HomeController.cs:52:SCS0018",
      "scanner": {
        "id": "security_code_scan",
        "name": "Security Code Scan"
      },
      "location": {
        "file": "Project2/WebApp/Controllers/HomeController.cs",
        "start_line": 52
      },
      "identifiers": [
        {
          "type": "security_code_scan_rule_id",
          "name": "SCS0018",
          "value": "SCS0018",
          "url": "https://security-code-scan.github.io/#SCS0018"
        }
      ]
    },
    {
      "id": "f94855b84a424ec868dd997ee4cf01d9c948fcaf4c61019c14046c5b75ad7999",
      "category": "sast",
      "name": "Weak random generator",
      "message": "Weak random generator",
      "cve": "Project2/WebLib/GetRandom.cs:11:SCS0005",
      "scanner": {
        "id": "security_code_scan",
        "name": "Security Code Scan"
      },
      "location": {
        "file": "Project2/WebLib/GetRandom.cs",
        "start_line": 11
      },
      "identifiers": [
        {
          "type": "security_code_scan_rule_id",
          "name": "SCS0005",
          "value": "SCS0005",
          "url": "https://security-code-scan.github.io/#SCS0005"
        }
      ]
    },
    {
      "id": "7d5897bcb628f4d565d64925710c77bff2061756b4a8e43e307b20ceb2cd744c",
      "category": "sast",
      "name": "Path traversal: injection possible in 1st argument passed to 'System.IO.File.ReadAllBytes'",
      "message": "Path traversal: injection possible in 1st argument passed to 'System.IO.File.ReadAllBytes'",
      "cve": "WebApp/Controllers/HomeController.cs:52:SCS0018",
      "scanner": {
        "id": "security_code_scan",
        "name": "Security Code Scan"
      },
      "location": {
        "file": "WebApp/Controllers/HomeController.cs",
        "start_line": 52
      },
      "identifiers": [
        {
          "type": "security_code_scan_rule_id",
          "name": "SCS0018",
          "value": "SCS0018",
          "url": "https://security-code-scan.github.io/#SCS0018"
        }
      ]
    },
    {
      "id": "7e5d4f892d672164090d455cf624350f8854fe7992891bebe42934d52d442e25",
      "category": "sast",
      "name": "Weak random generator",
      "message": "Weak random generator",
      "cve": "WebLib/GetRandom.cs:11:SCS0005",
      "scanner": {
        "id": "security_code_scan",
        "name": "Security Code Scan"
      },
      "location": {
        "file": "WebLib/GetRandom.cs",
        "start_line": 11
      },
      "identifiers": [
        {
          "type": "security_code_scan_rule_id",
          "name": "SCS0005",
          "value": "SCS0005",
          "url": "https://security-code-scan.github.io/#SCS0005"
        }
      ]
    }
  ],
  "remediations": [],
  "scan": {
    "scanner": {
      "id": "security_code_scan",
      "name": "Security Code Scan",
      "url": "https://security-code-scan.github.io",
      "vendor": {
        "name": "GitLab"
      },
      "version": "3.5.3"
    },
    "type": "sast",
    "start_time": "2020-12-16T21:37:38",
    "end_time": "2020-12-16T21:38:12",
    "status": "success"
  }
}
